module gitlab.com/pages/hugo

go 1.20

require (
	github.com/alex-shpak/hugo-book v0.0.0-20240311131218-2dffe0bc7a5c // indirect
	github.com/theNewDynamic/gohugo-theme-ananke v0.0.0-20230203204610-a1a99cf12681 // indirect
)
